0.00000,0.00000,0.04026
0.10000,0.03990,0.69798
0.20000,0.08990,4.61743
0.30000,0.13990,8.18789
0.40000,0.18990,12.30869
0.50000,0.23990,15.81204
0.60000,0.28990,19.54357
0.70000,0.33990,23.23483
0.80000,0.38990,26.83214
0.90000,0.43990,30.13415
1.00000,0.48990,32.08045
1.10000,0.53990,34.06702
1.20000,0.58990,33.94622
1.30000,0.63990,34.13414
1.40000,0.68990,34.41601
1.50000,0.73990,34.60393
1.60000,0.78990,35.16769
1.70000,0.83990,36.37574
1.80000,0.88990,38.59050
1.90000,0.93990,41.69116
2.00000,0.98990,45.30189
2.10000,1.03990,48.80524
2.20000,1.08990,52.24147
2.30000,1.13990,55.59717
2.40000,1.18990,58.89917
2.50000,1.23990,62.17433
2.60000,1.28990,65.42265
2.70000,1.33990,68.59042
2.80000,1.38990,71.67766
2.90000,1.43990,74.73806
3.00000,1.48990,77.74476
3.10000,1.53990,80.72462
3.20000,1.58980,83.65079
3.30000,1.63980,86.52326
3.40000,1.68980,89.34205
3.50000,1.73980,92.08030
3.60000,1.78980,94.76485
3.70000,1.83980,97.44941
3.80000,1.88980,99.99974
3.90000,1.93980,102.55007
4.00000,1.98980,105.03328
4.10000,2.03980,107.38227
4.20000,2.08980,109.73126
4.30000,2.13980,112.01313
4.40000,2.18980,114.16078
4.50000,2.23980,116.30842
4.60000,2.28980,118.25473
4.70000,2.33980,120.20103
4.80000,2.38980,122.08022
4.90000,2.43980,123.82518
5.00000,2.48980,125.43592
5.10000,2.53980,126.97954
5.20000,2.58980,128.38893
5.30000,2.63980,129.73121
5.40000,2.68980,131.00637
5.50000,2.73980,132.08020
5.60000,2.78980,133.08690
5.70000,2.83980,133.95938
5.80000,2.88980,134.69765
5.90000,2.93980,135.30166
6.00000,2.98980,135.83857
6.10000,3.03980,136.24126
6.20000,3.08980,136.44260
6.30000,3.13970,136.64395
6.40000,3.18970,136.64395
6.50000,3.23970,136.57683
6.60000,3.28970,136.44260
6.70000,3.33970,136.17414
6.80000,3.38970,135.83857
6.90000,3.43970,135.43589
7.00000,3.48970,134.96609
7.10000,3.53970,134.42919
7.20000,3.58970,133.82515
7.30000,3.63970,133.22113
7.40000,3.68970,132.54999
7.50000,3.73970,131.87885
7.60000,3.78970,131.20770
7.70000,3.83970,130.53657
7.80000,3.88970,129.79832
7.90000,3.93970,129.06007
8.00000,3.98970,128.38893
8.10000,4.03970,127.71779
8.20000,4.08970,127.04664
8.30000,4.13970,126.37551
8.40000,4.18970,125.70436
8.50000,4.23970,125.03323
8.60000,4.28970,124.42921
8.70000,4.33970,123.89230
8.80000,4.38970,123.35538
8.90000,4.43970,122.81847
9.00000,4.48970,122.28156
9.10000,4.53970,121.81176
9.20000,4.58970,121.34197
9.30000,4.63970,120.93928
9.40000,4.68960,120.53660
9.50000,4.73960,120.20103
9.60000,4.78960,119.79835
9.70000,4.83960,119.46278
9.75000,4.86460,21.47645