0.00000,0.00000,0.04026
0.10000,0.04090,0.46979
0.20000,0.09090,1.98657
0.30000,0.14090,4.40267
0.40000,0.19090,6.40266
0.50000,0.24090,8.95299
0.60000,0.29090,11.24829
0.70000,0.34090,13.61070
0.80000,0.39090,15.89257
0.90000,0.44090,18.30867
1.00000,0.49090,20.88585
1.10000,0.54090,23.22141
1.20000,0.59090,24.83215
1.30000,0.64090,26.17442
1.40000,0.69090,28.08046
1.50000,0.74090,30.36233
1.60000,0.79090,33.02004
1.70000,0.84090,35.57037
1.80000,0.89090,37.86567
1.90000,0.94090,38.40258
2.00000,0.99090,38.44285
2.10000,1.04090,38.71131
2.20000,1.09090,38.79184
2.30000,1.14080,39.90593
2.40000,1.19080,41.24821
2.50000,1.24080,43.87908
2.60000,1.29080,46.38914
2.70000,1.34080,48.85893
2.80000,1.39080,51.22134
2.90000,1.44080,53.50321
3.00000,1.49080,55.57032
3.10000,1.54080,57.07367
3.20000,1.59080,58.79179
3.30000,1.64080,60.48306
3.40000,1.69080,62.55017
3.50000,1.74080,64.69782
3.60000,1.79080,66.71123
3.70000,1.84080,68.72465
3.80000,1.89080,70.71122
3.90000,1.94080,72.59041
4.00000,1.99080,74.41591
4.10000,2.04080,76.18772
4.20000,2.09080,77.93268
4.30000,2.14080,79.57026
4.40000,2.19080,81.15415
4.50000,2.24080,82.65750
4.60000,2.29080,84.10716
4.70000,2.34080,85.44944
4.80000,2.39080,86.73803
4.90000,2.44080,87.94608
5.00000,2.49080,89.07359
5.10000,2.54080,90.09372
5.20000,2.59080,91.00647
5.30000,2.64080,91.83869
5.40000,2.69080,92.61721
5.50000,2.74070,93.28835
5.60000,2.79070,93.87895
5.70000,2.84070,94.33532
5.80000,2.89070,94.71116
5.90000,2.94070,95.03331
6.00000,2.99070,95.30176
6.10000,3.04070,95.43599
6.20000,3.09070,95.50311
6.30000,3.14070,95.50311
6.40000,3.19070,95.43599
6.50000,3.24070,95.36888
6.60000,3.29070,95.23465
6.70000,3.34070,95.03331
6.80000,3.39070,94.83197
6.90000,3.44070,94.63063
7.00000,3.49070,94.36217
7.10000,3.54070,94.09371
7.20000,3.59070,93.82526
7.30000,3.64070,93.48969
7.40000,3.69070,93.22123
7.50000,3.74070,92.95278
7.60000,3.79070,92.68432
7.70000,3.84070,92.41587
7.80000,3.89070,92.21452
7.90000,3.94070,91.94607
8.00000,3.99070,91.67761
8.10000,4.04070,91.47627
8.20000,4.09070,91.27493
8.30000,4.14070,91.07359
8.40000,4.19070,90.87225
8.50000,4.24070,90.73802
8.60000,4.29060,90.53668
8.70000,4.34060,90.40245
8.80000,4.39060,90.26822
8.90000,4.44060,90.13399
9.00000,4.49060,90.06688
9.10000,4.54060,89.93265
9.20000,4.59060,89.86554
9.30000,4.64060,89.73131
9.40000,4.69060,89.66419
9.50000,4.74060,89.59708
9.60000,4.79060,89.52997
9.70000,4.84060,89.46285
9.80000,4.89060,89.46285
9.90000,4.94060,89.39574
10.00000,4.99060,89.34205
10.10000,5.04060,89.34205
10.20000,5.09060,89.31520
10.30000,5.14060,89.31520
10.40000,5.19060,89.31520
10.50000,5.24060,89.34205
10.60000,5.29060,89.34205
10.70000,5.34060,89.36889
10.80000,5.39060,89.39574
10.90000,5.44060,89.39574
11.00000,5.49060,89.44943
11.10000,5.54060,89.50312
11.20000,5.59060,89.52997
11.30000,5.64060,89.58366
11.40000,5.69060,89.61050
11.50000,5.74060,89.69104
11.60000,5.79060,89.74473
11.70000,5.84050,89.82527
11.80000,5.89050,89.87896
11.90000,5.94050,89.93265
12.00000,5.99050,90.01319
12.10000,6.04050,90.09372
12.20000,6.09050,90.17426
12.30000,6.14050,90.28164
12.40000,6.19050,90.33533
12.50000,6.24050,90.41587
12.60000,6.29050,90.49641
12.70000,6.34050,90.60379
12.80000,6.39050,90.71117
12.90000,6.44050,90.79171
13.00000,6.49050,90.87225
13.10000,6.54050,90.95278
13.20000,6.59050,91.06016
13.30000,6.64050,91.16755
13.40000,6.69050,91.27493
13.50000,6.74050,91.35547
13.60000,6.79050,91.46285
13.70000,6.84050,91.57023
13.80000,6.89050,91.67761
13.90000,6.94050,91.78499
14.00000,6.99050,91.89238
14.10000,7.04050,91.97291
14.20000,7.09050,92.10714
14.30000,7.14050,92.21452
14.40000,7.19050,92.32191
14.50000,7.24050,92.45613
14.60000,7.29050,92.56352
14.70000,7.34050,92.67090
14.80000,7.39040,92.77828
14.90000,7.44040,92.93935
15.00000,7.49040,93.04674
15.10000,7.54040,93.18096
15.20000,7.59040,93.28835
15.30000,7.64040,93.42257
15.40000,7.69040,93.52996
15.50000,7.74040,93.69103
15.60000,7.79040,93.82526
15.70000,7.84040,93.95949
15.80000,7.89040,94.12056
15.90000,7.94040,94.25479
16.00000,7.99040,94.41586
16.10000,8.04040,94.57693
16.20000,8.09040,94.76485
16.30000,8.14040,94.92593
16.40000,8.19040,95.08700
16.50000,8.24040,95.30176
16.60000,8.29040,95.50311
16.70000,8.34040,95.70445
16.80000,8.39040,95.90579
16.90000,8.44040,96.04002
17.00000,8.49040,96.24136
17.10000,8.54040,96.50982
17.20000,8.59040,96.71116
17.30000,8.64040,96.91250
17.40000,8.69040,97.18095
17.50000,8.74040,97.38230
17.60000,8.79040,97.58364
17.70000,8.84040,97.85209
17.80000,8.89040,98.12055
17.90000,8.94040,98.38900
18.00000,8.99030,98.65746
18.10000,9.04030,98.92592
18.20000,9.09030,99.19437
18.30000,9.14020,99.46283
18.40000,9.19020,99.73128
18.50000,9.24020,100.06685
18.60000,9.29020,100.33531
18.70000,9.34020,100.60376
18.80000,9.39020,100.93933
18.90000,9.44020,101.20779
19.00000,9.49020,101.54336
19.10000,9.54020,101.81181
19.20000,9.59020,102.14738
19.30000,9.64020,10.40265