0.00000,0.00000,0.00000
0.10000,-0.16010,0.00000
0.20000,-0.36010,-0.01343
0.30000,-0.56010,0.00000
0.40000,-0.76010,-0.01343
0.50000,-0.96010,-0.02685
0.60000,-1.16000,-0.01343
0.70000,-1.36000,-0.01343
0.80000,-1.56000,-0.02685
0.90000,-1.76000,-0.02685
1.00000,-1.96000,-0.02685
1.10000,-2.16000,-0.02685
1.20000,-2.36000,-0.02685
1.30000,-2.56000,-0.04027
1.40000,-2.75990,-0.04027
1.50000,-2.95990,-0.04027
1.60000,-3.15990,-0.04027
1.70000,-3.35990,-0.04027
1.80000,-3.55990,-0.04027
1.90000,-3.75990,-0.05370
2.00000,-3.95990,-0.05370
2.10000,-4.15990,-0.05370
2.20000,-4.35980,-0.05370
2.30000,-4.55980,-0.05370
2.40000,-4.75970,-0.06712
2.50000,-4.95970,-0.06712
2.60000,-5.15970,-0.06712
2.70000,-5.35970,-0.06712
2.80000,-5.55970,-0.06712
2.90000,-5.75970,-0.06712
3.00000,-5.95970,-0.06712
3.10000,-6.15970,-0.06712
3.20000,-6.35960,-0.08054
3.30000,-6.55960,-0.08054
3.40000,-6.75960,-0.08054
3.50000,-6.95960,-0.08054
3.60000,-7.15960,-0.08054
3.70000,-7.35960,-0.09396
3.80000,-7.55960,-0.09396
3.90000,-7.75960,-0.09396
4.00000,-7.95950,-0.09396
4.10000,-8.15950,-0.09396
4.20000,-8.35950,-0.10739
4.30000,-8.55950,-0.09396
4.40000,-8.75950,-0.10739
4.50000,-8.95950,-0.10739
4.60000,-9.15950,-0.10739
4.70000,-9.35950,-0.10739
4.80000,-9.55940,-0.10739
4.90000,-9.75940,-0.10739
5.00000,-9.95940,-0.12081
5.10000,-10.15940,-0.10739
5.20000,-10.35940,-0.10739
5.30000,-10.55940,-0.12081
5.40000,-10.75940,-0.12081
5.50000,-10.95930,-0.12081
5.60000,-11.15930,-0.13423
5.70000,-11.35930,-0.12081
5.80000,-11.55930,-0.13423
5.90000,-11.75930,-0.13423
6.00000,-11.95930,-0.13423
6.10000,-12.15930,-0.13423
6.20000,-12.35930,-0.14766
6.30000,-12.55920,-0.14766
6.40000,-12.75920,-0.14766
6.50000,-12.95920,-0.14766
6.60000,-13.15920,-0.14766
6.70000,-13.35920,-0.14766
6.80000,-13.55920,-0.14766
6.90000,-13.75920,-0.14766
7.00000,-13.95920,-0.14766
7.10000,-14.15910,-0.16108
7.20000,-14.35910,-0.14766
7.30000,-14.55910,-0.16108
7.40000,-14.75910,-0.16108
7.50000,-14.95910,-0.16108
7.60000,-15.15910,-0.16108
7.70000,-15.35910,-0.16108
7.80000,-15.55910,-0.16108
7.90000,-15.75900,-0.16108
8.00000,-15.95900,-0.16108
8.10000,-16.15900,-0.17450
8.20000,-16.35900,-0.17450
8.30000,-16.55900,-0.17450
8.40000,-16.75900,-0.17450
8.50000,-16.95900,-0.17450
8.60000,-17.15900,-0.17450
8.70000,-17.35890,-0.17450
8.80000,-17.55890,-0.17450
8.90000,-17.75890,-0.17450
9.00000,-17.95890,-0.17450
9.10000,-18.15890,-0.18792
9.20000,-18.35890,-0.18792
9.30000,-18.55890,-0.18792
9.40000,-18.75880,-0.18792
9.50000,-18.95880,-0.18792
9.60000,-19.15880,-0.18792
9.70000,-19.35880,-0.18792
9.80000,-19.55880,-0.18792
9.90000,-19.75880,-0.20135
10.00000,-19.95880,-0.20135
10.10000,-20.15880,-0.20135
10.20000,-20.35870,-0.20135
10.30000,-20.55870,-0.18792
10.40000,-20.75870,-0.18792
10.50000,-20.95870,-0.20135
10.60000,-21.15870,-0.20135
10.70000,-21.35870,-0.20135
10.80000,-21.55870,-0.20135
10.90000,-21.75870,-0.20135
11.00000,-21.95860,-0.20135
11.10000,-22.15860,-0.20135
11.20000,-22.35860,-0.20135
11.30000,-22.55860,-0.20135
11.40000,-22.75860,-0.20135
11.50000,-22.95860,-0.20135
11.60000,-23.15860,-0.20135
11.70000,-23.35860,-0.20135
11.80000,-23.55850,-0.20135
11.90000,-23.75850,-0.20135
12.00000,-23.95850,-0.20135
12.10000,-24.15850,-0.20135
12.20000,-24.35850,-0.20135
12.30000,-24.55850,-0.20135
12.40000,-24.75850,-0.21477
12.50000,-24.95850,-0.21477
12.60000,-25.15840,-0.21477
12.70000,-25.35840,-0.21477
12.80000,-25.55840,-0.22819
12.90000,-25.75840,-0.24162
13.00000,-25.95840,-0.25504
13.10000,-26.15840,-0.25504
13.20000,-26.35840,-0.28188
13.30000,-26.55840,-0.28188
13.40000,-26.75830,-0.29531
13.50000,-26.95830,-0.30873
13.60000,-27.15830,-0.28188
13.70000,-27.35830,-0.29531
13.80000,-27.55830,-0.30873
13.90000,-27.75830,-0.30873
14.00000,-27.95830,-0.30873
14.10000,-28.15820,-0.32215
14.20000,-28.35820,-0.37584
14.30000,-28.55820,-0.48323
14.40000,-28.75820,-0.53692