0.00000,0.00000,0.10738
0.10000,-0.06610,0.09395
0.20000,-0.16610,0.06711
0.30000,-0.26610,-0.01343
0.40000,-0.36610,-0.10739
0.50000,-0.46610,-0.21477
0.60000,-0.56610,-0.37584
0.70000,-0.66600,-0.56376
0.80000,-0.76600,-0.65772
0.90000,-0.86600,-0.72484
1.00000,-0.96600,-0.96645
1.10000,-1.06600,-1.36913
1.20000,-1.16600,-1.85235
1.30000,-1.26600,-2.56376
1.40000,-1.36600,-3.58389
1.50000,-1.46600,-4.84563
1.60000,-1.56600,-6.45636
1.70000,-1.66600,-8.52347