0.00000,0.00000,0.01342
0.10000,-0.08410,0.00000
0.20000,-0.18410,0.00000
0.30000,-0.28410,0.00000
0.40000,-0.38410,0.00000
0.50000,-0.48400,0.00000
0.60000,-0.58400,0.00000
0.70000,-0.68400,0.00000
0.80000,-0.78400,0.00000
0.90000,-0.88400,0.00000
1.00000,-0.98400,-0.01343
1.10000,-1.08400,0.00000
1.20000,-1.18400,-0.01343
1.30000,-1.28400,-0.01343
1.40000,-1.38400,-0.01343
1.50000,-1.48400,-0.01343
1.60000,-1.58400,-0.01343
1.70000,-1.68400,-0.01343
1.80000,-1.78400,0.00000
1.90000,-1.88400,-0.01343
2.00000,-1.98400,-0.01343
2.10000,-2.08390,-0.01343
2.20000,-2.18390,-0.01343
2.30000,-2.28390,-0.01343
2.40000,-2.38390,-0.01343
2.50000,-2.48390,-0.01343
2.60000,-2.58390,-0.01343
2.70000,-2.68390,-0.01343
2.80000,-2.78390,-0.01343
2.90000,-2.88390,-0.02685
3.00000,-2.98390,-0.02685
3.10000,-3.08390,-0.02685
3.20000,-3.18390,-0.02685
3.30000,-3.28390,-0.02685
3.40000,-3.38390,-0.02685
3.50000,-3.48390,-0.02685
3.60000,-3.58380,-0.02685
3.70000,-3.68380,-0.02685
3.80000,-3.78380,-0.02685
3.90000,-3.88380,-0.02685
4.00000,-3.98380,-0.02685
4.10000,-4.08380,-0.02685
4.20000,-4.18380,-0.02685
4.30000,-4.28380,-0.04027
4.40000,-4.38380,-0.02685
4.50000,-4.48380,-0.04027
4.60000,-4.58380,-0.04027
4.70000,-4.68380,-0.04027
4.80000,-4.78380,-0.04027
4.90000,-4.88380,-0.04027
5.00000,-4.98380,-0.04027
5.10000,-5.08380,-0.04027
5.20000,-5.18370,-0.04027
5.30000,-5.28370,-0.04027
5.40000,-5.38370,-0.04027
5.50000,-5.48370,-0.04027
5.60000,-5.58370,-0.04027
5.70000,-5.68370,-0.04027
5.80000,-5.78370,-0.04027
5.90000,-5.88370,-0.05370
6.00000,-5.98370,-0.05370
6.10000,-6.08370,-0.05370
6.20000,-6.18370,-0.05370
6.30000,-6.28370,-0.05370
6.40000,-6.38370,-0.04027
6.50000,-6.48370,-0.05370
6.60000,-6.58370,-0.05370
6.70000,-6.68360,-0.05370
6.80000,-6.78360,-0.05370
6.90000,-6.88360,-0.05370
7.00000,-6.98360,-0.05370
7.10000,-7.08360,-0.05370
7.20000,-7.18360,-0.05370
7.30000,-7.28360,-0.06712
7.40000,-7.38360,-0.05370
7.50000,-7.48360,-0.06712
7.60000,-7.58360,-0.06712
7.70000,-7.68360,-0.06712
7.80000,-7.78360,-0.06712
7.90000,-7.88360,-0.06712
8.00000,-7.98360,-0.06712
8.10000,-8.08360,-0.06712
8.20000,-8.18360,-0.06712
8.30000,-8.28350,-0.06712
8.40000,-8.38350,-0.06712
8.50000,-8.48350,-0.06712
8.60000,-8.58350,-0.06712
8.70000,-8.68350,-0.06712
8.80000,-8.78350,-0.06712
8.90000,-8.88350,-0.06712
9.00000,-8.98350,-0.06712
9.10000,-9.08350,-0.06712
9.20000,-9.18340,-0.06712
9.30000,-9.28330,-0.06712
9.40000,-9.38330,-0.06712
9.50000,-9.48330,-0.06712
9.60000,-9.58330,-0.08054
9.70000,-9.68330,-0.08054
9.80000,-9.78330,-0.08054
9.90000,-9.88330,-0.08054
10.00000,-9.98330,-0.08054
10.10000,-10.08330,-0.08054
10.20000,-10.18330,-0.08054
10.30000,-10.28330,-0.08054
10.40000,-10.38330,-0.08054
10.50000,-10.48330,-0.08054
10.60000,-10.58330,-0.08054
10.70000,-10.68330,-0.08054
10.80000,-10.78320,-0.09396
10.90000,-10.88320,-0.08054
11.00000,-10.98320,-0.08054
11.10000,-11.08320,-0.08054
11.20000,-11.18320,-0.08054
11.30000,-11.28320,-0.08054
11.40000,-11.38320,-0.08054
11.50000,-11.48320,-0.08054
11.60000,-11.58320,-0.09396
11.70000,-11.68320,-0.09396
11.80000,-11.78320,-0.08054
11.90000,-11.88320,-0.08054
12.00000,-11.98320,-0.09396
12.10000,-12.08320,-0.09396
12.20000,-12.18320,-0.09396
12.30000,-12.28320,-0.09396
12.40000,-12.38310,-0.09396
12.50000,-12.48310,-0.09396
12.60000,-12.58310,-0.09396
12.70000,-12.68310,-0.09396
12.80000,-12.78310,-0.09396
12.90000,-12.88310,-0.09396
13.00000,-12.98310,-0.09396
13.10000,-13.08310,-0.09396
13.20000,-13.18310,-0.09396
13.30000,-13.28310,-0.09396
13.40000,-13.38310,-0.10739
13.50000,-13.48310,-0.09396
13.60000,-13.58310,-0.10739
13.70000,-13.68310,-0.10739
13.80000,-13.78310,-0.09396
13.90000,-13.88310,-0.09396
14.00000,-13.98300,-0.10739
14.10000,-14.08300,-0.10739
14.20000,-14.18300,-0.10739
14.30000,-14.28300,-0.10739
14.40000,-14.38300,-0.10739
14.50000,-14.48300,-0.10739
14.60000,-14.58300,-0.10739
14.70000,-14.68300,-0.10739
14.80000,-14.78300,-0.10739
14.90000,-14.88300,-0.10739
15.00000,-14.98300,-0.10739
15.10000,-15.08300,-0.10739
15.20000,-15.18300,-0.10739
15.30000,-15.28300,-0.10739
15.40000,-15.38300,-0.10739
15.50000,-15.48290,-0.10739
15.60000,-15.58290,-0.10739
15.70000,-15.68290,-0.10739
15.80000,-15.78290,-0.10739
15.90000,-15.88290,-0.12081
16.00000,-15.98290,-0.12081
16.10000,-16.08290,-0.10739
16.20000,-16.18290,-0.10739
16.30000,-16.28290,-0.10739
16.40000,-16.38290,-0.12081
16.50000,-16.48290,-0.12081
16.60000,-16.58290,-0.12081
16.70000,-16.68290,-0.12081
16.80000,-16.78290,-0.12081
16.90000,-16.88290,-0.12081
17.00000,-16.98290,-0.12081
17.10000,-17.08280,-0.12081
17.20000,-17.18280,-0.12081
17.30000,-17.28280,-0.12081
17.40000,-17.38280,-0.12081
17.50000,-17.48280,-0.12081
17.60000,-17.58280,-0.12081
17.70000,-17.68280,-0.12081
17.80000,-17.78280,-0.12081
17.90000,-17.88280,-0.12081
18.00000,-17.98280,-0.12081
18.10000,-18.08280,-0.12081
18.20000,-18.18280,-0.13423
18.30000,-18.28280,-0.13423
18.40000,-18.38280,-0.13423
18.50000,-18.48280,-0.13423
18.60000,-18.58270,-0.13423
18.70000,-18.68270,-0.13423
18.80000,-18.78270,-0.14766
18.90000,-18.88270,-0.14766
19.00000,-18.98270,-0.14766
19.10000,-19.08270,-0.14766
19.20000,-19.18270,-0.14766
19.30000,-19.28270,-0.14766
19.40000,-19.38270,-0.14766
19.50000,-19.48270,-0.14766
19.60000,-19.58270,-0.14766
19.70000,-19.68270,-0.14766
19.80000,-19.78270,-0.14766
19.90000,-19.88270,-0.16108
20.00000,-19.98270,-0.16108
20.10000,-20.08270,-0.14766
20.20000,-20.18260,-0.16108
20.30000,-20.28260,-0.14766
20.40000,-20.38260,-0.16108
20.50000,-20.48260,-0.16108
20.60000,-20.58260,-0.16108
20.70000,-20.68260,-0.16108
20.80000,-20.78260,-0.16108
20.90000,-20.88260,-0.16108
21.00000,-20.98260,-0.16108
21.10000,-21.08260,-0.16108
21.20000,-21.18260,-0.16108
21.30000,-21.28260,-0.16108
21.40000,-21.38260,-0.16108
21.50000,-21.48260,-0.16108
21.60000,-21.58260,-0.17450
21.70000,-21.68260,-0.17450
21.80000,-21.78250,-0.16108
21.90000,-21.88250,-0.17450
22.00000,-21.98250,-0.17450
22.10000,-22.08250,-0.17450
22.20000,-22.18250,-0.17450
22.30000,-22.28250,-0.17450
22.40000,-22.38250,-0.17450
22.50000,-22.48250,-0.17450
22.60000,-22.58250,-0.17450
22.70000,-22.68250,-0.17450
22.80000,-22.78250,-0.18792
22.90000,-22.88250,-0.22819
23.00000,-22.98250,-0.24162
23.10000,-23.08250,-0.28188