0.00000,0.00000,0.01342
0.10000,-0.06810,0.00000
0.20000,-0.16810,0.00000
0.30000,-0.26810,0.01342
0.40000,-0.36810,0.01342
0.50000,-0.46810,0.00000
0.60000,-0.56810,0.01342
0.70000,-0.66810,0.00000
0.80000,-0.76810,0.00000
0.90000,-0.86800,0.00000
1.00000,-0.96800,0.00000
1.10000,-1.06800,0.00000
1.20000,-1.16800,0.00000
1.30000,-1.26800,0.00000
1.40000,-1.36800,0.01342
1.50000,-1.46800,0.00000
1.60000,-1.56800,0.00000
1.70000,-1.66800,0.00000
1.80000,-1.76800,0.00000
1.90000,-1.86800,0.00000
2.00000,-1.96800,0.00000
2.10000,-2.06800,0.00000
2.20000,-2.16800,0.00000
2.30000,-2.26800,-0.01343
2.40000,-2.36800,-0.01343
2.50000,-2.46790,-0.01343
2.60000,-2.56790,-0.01343
2.70000,-2.66790,-0.01343
2.80000,-2.76790,-0.01343
2.90000,-2.86790,-0.01343
3.00000,-2.96790,-0.01343
3.10000,-3.06790,-0.01343
3.20000,-3.16790,-0.01343
3.30000,-3.26790,-0.01343
3.40000,-3.36790,-0.02685
3.50000,-3.46790,-0.01343
3.60000,-3.56790,-0.01343
3.70000,-3.66790,-0.02685
3.80000,-3.76790,-0.01343
3.90000,-3.86790,-0.02685
4.00000,-3.96790,-0.02685
4.10000,-4.06780,-0.02685
4.20000,-4.16780,-0.02685
4.30000,-4.26780,-0.02685
4.40000,-4.36780,-0.02685
4.50000,-4.46780,-0.02685
4.60000,-4.56780,-0.02685
4.70000,-4.66780,-0.02685
4.80000,-4.76780,-0.02685
4.90000,-4.86780,-0.02685
5.00000,-4.96780,-0.02685
5.10000,-5.06780,-0.04027
5.20000,-5.16780,-0.02685
5.30000,-5.26780,-0.04027
5.40000,-5.36780,-0.04027
5.50000,-5.46780,-0.04027
5.60000,-5.56770,-0.04027
5.70000,-5.66770,-0.04027
5.80000,-5.76770,-0.04027
5.90000,-5.86770,-0.04027
6.00000,-5.96770,-0.04027
6.10000,-6.06770,-0.05370
6.20000,-6.16770,-0.04027
6.30000,-6.26770,-0.04027
6.40000,-6.36770,-0.05370
6.50000,-6.46770,-0.04027
6.60000,-6.56770,-0.04027
6.70000,-6.66770,-0.05370
6.80000,-6.76770,-0.05370
6.90000,-6.86770,-0.05370
7.00000,-6.96770,-0.05370
7.10000,-7.06770,-0.05370
7.20000,-7.16760,-0.05370
7.30000,-7.26760,-0.05370
7.40000,-7.36760,-0.05370
7.50000,-7.46760,-0.05370
7.60000,-7.56760,-0.05370
7.70000,-7.66760,-0.05370
7.80000,-7.76760,-0.05370
7.90000,-7.86760,-0.05370
8.00000,-7.96760,-0.06712
8.10000,-8.06760,-0.06712
8.20000,-8.16760,-0.06712
8.30000,-8.26760,-0.06712
8.40000,-8.36760,-0.06712
8.50000,-8.46760,-0.06712
8.60000,-8.56760,-0.06712
8.70000,-8.66760,-0.06712
8.80000,-8.76750,-0.06712
8.90000,-8.86750,-0.06712
9.00000,-8.96750,-0.06712
9.10000,-9.06750,-0.06712
9.20000,-9.16750,-0.06712
9.30000,-9.26750,-0.06712
9.40000,-9.36750,-0.06712
9.50000,-9.46750,-0.06712
9.60000,-9.56750,-0.08054
9.70000,-9.66750,-0.06712
9.80000,-9.76750,-0.08054
9.90000,-9.86750,-0.08054
10.00000,-9.96750,-0.06712
10.10000,-10.06750,-0.08054
10.20000,-10.16750,-0.08054
10.30000,-10.26740,-0.08054
10.40000,-10.36740,-0.08054
10.50000,-10.46740,-0.08054
10.60000,-10.56740,-0.08054
10.70000,-10.66740,-0.08054
10.80000,-10.76740,-0.08054
10.90000,-10.86740,-0.08054
11.00000,-10.96740,-0.08054
11.10000,-11.06740,-0.08054
11.20000,-11.16740,-0.08054
11.30000,-11.26740,-0.08054
11.40000,-11.36740,-0.08054
11.50000,-11.46740,-0.08054
11.60000,-11.56740,-0.08054
11.70000,-11.66740,-0.08054
11.80000,-11.76740,-0.08054
11.90000,-11.86730,-0.08054
12.00000,-11.96730,-0.08054
12.10000,-12.06730,-0.09396
12.20000,-12.16730,-0.08054
12.30000,-12.26730,-0.08054
12.40000,-12.36730,-0.08054
12.50000,-12.46730,-0.09396
12.60000,-12.56730,-0.08054
12.70000,-12.66730,-0.08054
12.80000,-12.76730,-0.08054
12.90000,-12.86730,-0.08054
13.00000,-12.96730,-0.08054
13.10000,-13.06730,-0.08054
13.20000,-13.16730,-0.09396
13.30000,-13.26730,-0.09396
13.40000,-13.36720,-0.09396
13.50000,-13.46720,-0.09396
13.60000,-13.56720,-0.09396
13.70000,-13.66720,-0.09396
13.80000,-13.76720,-0.09396
13.90000,-13.86720,-0.09396
14.00000,-13.96720,-0.09396
14.10000,-14.06720,-0.09396
14.20000,-14.16720,-0.09396
14.30000,-14.26720,-0.09396
14.40000,-14.36720,-0.09396
14.50000,-14.46720,-0.09396
14.60000,-14.56720,-0.09396
14.70000,-14.66720,-0.09396
14.80000,-14.76720,-0.10739
14.90000,-14.86720,-0.09396
15.00000,-14.96710,-0.10739
15.10000,-15.06710,-0.10739
15.20000,-15.16710,-0.10739
15.30000,-15.26710,-0.10739
15.40000,-15.36710,-0.10739
15.50000,-15.46710,-0.10739
15.60000,-15.56710,-0.10739
15.70000,-15.66710,-0.10739
15.80000,-15.76710,-0.10739
15.90000,-15.86710,-0.10739
16.00000,-15.96710,-0.10739
16.10000,-16.06710,-0.10739
16.20000,-16.16710,-0.10739
16.30000,-16.26710,-0.10739
16.40000,-16.36710,-0.10739
16.50000,-16.46710,-0.12081
16.60000,-16.56700,-0.10739
16.70000,-16.66700,-0.10739
16.80000,-16.76700,-0.10739
16.90000,-16.86700,-0.12081
17.00000,-16.96700,-0.12081
17.10000,-17.06700,-0.10739
17.20000,-17.16700,-0.10739
17.30000,-17.26700,-0.12081
17.40000,-17.36700,-0.12081
17.50000,-17.46700,-0.10739
17.60000,-17.56700,-0.12081
17.70000,-17.66700,-0.12081
17.80000,-17.76700,-0.12081
17.90000,-17.86700,-0.12081
18.00000,-17.96700,-0.12081
18.10000,-18.06690,-0.12081
18.20000,-18.16690,-0.12081
18.30000,-18.26670,-0.12081
18.40000,-18.36670,-0.12081
18.50000,-18.46660,-0.12081
18.60000,-18.56660,-0.12081
18.70000,-18.66660,-0.10739
18.80000,-18.76660,-0.12081
18.90000,-18.86660,-0.12081
19.00000,-18.96660,-0.12081
19.10000,-19.06660,-0.12081
19.20000,-19.16660,-0.12081
19.30000,-19.26660,-0.12081
19.40000,-19.36660,-0.12081
19.50000,-19.46660,-0.12081
19.60000,-19.56660,-0.12081
19.70000,-19.66660,-0.12081
19.80000,-19.76660,-0.12081
19.90000,-19.86660,-0.12081
20.00000,-19.96650,-0.12081
20.10000,-20.06650,-0.12081
20.20000,-20.16650,-0.13423
20.30000,-20.26650,-0.12081
20.40000,-20.36650,-0.12081
20.50000,-20.46650,-0.12081
20.60000,-20.56650,-0.13423
20.70000,-20.66650,-0.13423
20.80000,-20.76650,-0.13423
20.90000,-20.86650,-0.13423
21.00000,-20.96650,-0.13423
21.10000,-21.06650,-0.13423
21.20000,-21.16650,-0.14766
21.30000,-21.26650,-0.14766
21.40000,-21.36650,-0.16108
21.50000,-21.46650,-0.14766
21.60000,-21.56640,-0.14766
21.70000,-21.66640,-0.14766
21.80000,-21.76640,-0.14766
21.90000,-21.86640,-0.16108
22.00000,-21.96640,-0.14766
22.10000,-22.06640,-0.16108
22.20000,-22.16640,-0.16108
22.30000,-22.26640,-0.20135
22.40000,-22.36640,-0.24162
22.50000,-22.46640,-0.28188