0.00000,0.00000,0.01342
0.10000,0.01090,0.06711
0.20000,0.02760,0.32214
0.30000,0.04430,0.69798
0.40000,0.06090,1.11409
0.50000,0.07760,1.66442
0.60000,0.09420,2.10737
0.70000,0.11090,2.65771
0.80000,0.12760,3.19462
0.90000,0.14420,3.66442
1.00000,0.16090,4.21475
1.10000,0.17760,4.71139
1.20000,0.19420,5.19461
1.30000,0.21090,5.69126
1.40000,0.22760,6.20132
1.50000,0.24420,6.71139
1.60000,0.26090,7.20803
1.70000,0.27760,7.71810
1.80000,0.29420,8.20132
1.90000,0.31090,8.72480
2.00000,0.32760,9.22145
2.10000,0.34420,9.74494
2.20000,0.36090,10.26843
2.30000,0.37760,10.76507
2.40000,0.39420,11.27513
2.50000,0.41090,11.78520
2.60000,0.42760,12.29527
2.70000,0.44420,12.79191
2.80000,0.46090,13.27513
2.90000,0.47760,13.78519
3.00000,0.49420,14.26841
3.10000,0.51090,14.77848
3.20000,0.52760,15.24828
3.30000,0.54420,15.74492
3.40000,0.56090,16.21472
3.50000,0.57760,16.72478
3.60000,0.59420,17.18116
3.70000,0.61090,17.67780
3.80000,0.62750,18.13418
3.90000,0.64420,18.61740
4.00000,0.66090,19.08719
4.10000,0.67750,19.57041
4.20000,0.69420,20.02679
4.30000,0.71090,20.49659
4.40000,0.72750,20.95296
4.50000,0.74420,21.40934
4.60000,0.76090,21.79860
4.70000,0.77750,22.16101
4.80000,0.79420,22.59054
4.90000,0.81090,23.02007
5.00000,0.82750,23.42275
5.10000,0.84420,23.83886
5.20000,0.86090,24.24154
5.30000,0.87750,24.63080
5.40000,0.89420,25.00664
5.50000,0.91090,25.35563
5.60000,0.92750,25.61067
5.70000,0.94420,25.93281
5.80000,0.96090,26.17442
5.90000,0.97750,26.42946
6.00000,0.99420,26.59053
6.10000,1.01090,26.83214
6.20000,1.02750,27.02006
6.30000,1.04420,27.19456
6.40000,1.06090,27.30194
6.50000,1.07750,27.38248
6.60000,1.09420,27.42274
6.70000,1.11090,27.40932
6.80000,1.12750,27.38248
6.90000,1.14420,27.28852
7.00000,1.16080,27.19456
7.10000,1.17750,27.08717
7.20000,1.19420,26.97979
7.30000,1.21080,26.87241
7.40000,1.22750,26.77845
7.50000,1.24420,26.69791
7.60000,1.26080,26.61738
7.70000,1.27750,26.55026
7.80000,1.29420,26.49657
7.90000,1.31080,26.45630
8.00000,1.32750,26.41603
8.10000,1.34420,26.38919
8.20000,1.36080,26.34892
8.30000,1.37750,26.33550
8.40000,1.39420,26.32208
8.50000,1.41080,26.32208
8.60000,1.42750,26.29523
8.70000,1.44420,26.29523
8.80000,1.46080,26.29523
8.90000,1.47750,26.30865
9.00000,1.49420,26.30865
9.10000,1.51080,26.32208
9.20000,1.52750,26.32208
9.30000,1.54420,26.34892
9.40000,1.56080,26.33550
9.50000,1.57750,26.34892
9.60000,1.59420,26.36234
9.70000,1.61080,26.37577
9.80000,1.62750,26.38919
9.90000,1.64420,26.40261
10.00000,1.66080,26.41603
10.10000,1.67750,26.44288
10.20000,1.69410,26.44288
10.30000,1.71080,26.45630
10.40000,1.72750,26.48315
10.50000,1.74410,26.50999
10.60000,1.76080,26.52342
10.70000,1.77750,26.53684
10.80000,1.79410,26.55026
10.90000,1.81080,26.57711
11.00000,1.82750,26.57711
11.10000,1.84410,26.60395
11.20000,1.86080,26.63080
11.30000,1.87750,26.64422
11.40000,1.89410,26.67107
11.50000,1.91080,26.67107
11.60000,1.92750,26.69791
11.70000,1.94410,26.71134
11.80000,1.96080,26.73818
11.90000,1.97750,26.75160
12.00000,1.99410,26.76503
12.10000,2.01080,26.79187
12.20000,2.02750,26.80530
12.30000,2.04410,26.81872
12.40000,2.06080,26.84556
12.50000,2.07750,26.85899
12.60000,2.09410,26.87241
12.70000,2.11080,26.87241
12.80000,2.12750,26.91268
12.90000,2.14410,26.91268
13.00000,2.16080,26.93952
13.10000,2.17740,26.95295
13.20000,2.19410,26.97979
13.30000,2.21080,26.99321
13.40000,2.22740,27.02006
13.50000,2.24410,27.02006
13.60000,2.26080,27.03348
13.70000,2.27740,27.06033
13.80000,2.29410,27.07375
13.90000,2.31080,27.10060
14.00000,2.32740,27.10060
14.10000,2.34410,27.11402
14.20000,2.36080,27.14087
14.30000,2.37740,27.15429
14.40000,2.39410,27.16771
14.50000,2.41080,27.19456
14.60000,2.42740,27.20798
14.70000,2.44410,27.22140
14.80000,2.46080,27.23482
14.90000,2.47740,27.24825
15.00000,2.49410,27.27509
15.10000,2.51080,27.28852
15.20000,2.52740,27.30194
15.30000,2.54410,27.32878
15.40000,2.56080,27.32878
15.50000,2.57740,27.35563
15.60000,2.59410,27.36905
15.70000,2.61080,27.38248
15.80000,2.62740,27.40932
15.90000,2.64410,27.42274
16.00000,2.66080,27.42274
16.10000,2.67740,27.43617
16.20000,2.69410,27.44959
16.30000,2.71070,27.47643
16.40000,2.72740,27.48986
16.50000,2.74410,27.48986
16.60000,2.76070,27.51670
16.70000,2.77740,27.53013
16.80000,2.79410,27.54355
16.90000,2.81070,27.54355
17.00000,2.82740,27.58382
17.10000,2.84410,27.58382
17.20000,2.86070,27.61066
17.30000,2.87740,27.62409
17.40000,2.89410,27.63751
17.50000,2.91070,27.65093
17.60000,2.92740,27.67778
17.70000,2.94410,27.67778
17.80000,2.96070,27.70462
17.90000,2.97740,27.71804
18.00000,2.99410,27.74489
18.10000,3.01070,27.74489
18.20000,3.02740,27.75831
18.30000,3.04410,27.77174
18.40000,3.06070,27.78516
18.50000,3.07740,27.81200
18.60000,3.09410,27.82543
18.70000,3.11070,27.83885
18.80000,3.12740,27.85227
18.90000,3.14410,27.86570
19.00000,3.16070,27.87912
19.10000,3.17740,27.89254
19.20000,3.19410,27.90596
19.30000,3.21070,27.91939
19.40000,3.22740,27.93281
19.50000,3.24400,27.94623
19.60000,3.26070,27.95965
19.70000,3.27740,27.97308
19.80000,3.29400,27.98650
19.90000,3.31070,27.99992
20.00000,3.32740,28.01335
20.10000,3.34400,28.02677
20.20000,3.36070,28.04019
20.30000,3.37740,28.05361
20.40000,3.39400,28.08046
20.50000,3.41070,28.09388
20.60000,3.42740,28.10731
20.70000,3.44400,28.13415
20.80000,3.46070,28.14757
20.90000,3.47740,28.14757
21.00000,3.49400,28.17442
21.10000,3.51070,28.18784
21.20000,3.52740,28.18784
21.30000,3.54400,28.21469
21.40000,3.56070,28.22811
21.50000,3.57740,28.24153
21.60000,3.59400,28.25496
21.70000,3.61070,28.26838
21.80000,3.62740,28.28180
21.90000,3.64400,28.29522
22.00000,3.66070,28.29522
22.10000,3.67740,28.33549
22.20000,3.69400,28.33549
22.30000,3.71070,28.34892
22.40000,3.72740,28.36234
22.50000,3.74400,28.37576
22.60000,3.76070,28.40261
22.70000,3.77730,28.40261
22.80000,3.79400,28.42945
22.90000,3.81070,28.44288
23.00000,3.82730,28.45630
23.10000,3.84400,28.46972
23.20000,3.86070,28.48314
23.30000,3.87730,28.49657
23.40000,3.89400,28.50999
23.50000,3.91070,28.50999
23.60000,3.92730,28.52341
23.70000,3.94400,28.53683
23.80000,3.96070,28.56368
23.90000,3.97730,28.57710
24.00000,3.99400,28.59053
24.10000,4.01070,28.60395
24.20000,4.02730,28.61737
24.30000,4.04400,28.63079
24.40000,4.06070,28.64422
24.50000,4.07730,28.64422
24.60000,4.09400,28.67106
24.70000,4.11070,28.68449
24.80000,4.12730,28.68449
24.90000,4.14400,28.69791
25.00000,4.16070,28.71133
25.10000,4.17730,28.71133
25.20000,4.19400,28.72475
25.30000,4.21070,28.73818
25.40000,4.22730,28.75160
25.50000,4.24400,28.76502
25.60000,4.26060,28.77844
25.70000,4.27730,28.79187
25.80000,4.29400,28.80529
25.90000,4.31060,28.81871
26.00000,4.32730,28.83214
26.10000,4.34400,28.83214
26.20000,4.36060,28.84556
26.30000,4.37730,28.85898
26.40000,4.39400,28.87240
26.50000,4.41060,28.87240
26.60000,4.42730,28.88583
26.70000,4.44400,28.91267
26.80000,4.46060,28.91267
26.90000,4.47730,28.92610
27.00000,4.49400,28.93952
27.10000,4.51060,28.95294
27.20000,4.52730,28.96636
27.30000,4.54400,28.97979
27.40000,4.56060,28.99321
27.50000,4.57730,29.00663
27.60000,4.59400,29.00663
27.70000,4.61060,29.00663
27.80000,4.62730,29.03348
27.90000,4.64400,29.04690
28.00000,4.66060,29.04690
28.10000,4.67730,29.06032
28.20000,4.69400,29.06032
28.30000,4.71060,29.07375
28.40000,4.72730,29.07375
28.50000,4.74400,29.08717
28.60000,4.76060,29.10059
28.70000,4.77730,29.11401
28.80000,4.79390,29.11401
28.90000,4.81060,29.12744
29.00000,4.82730,29.14086
29.10000,4.84390,29.16771
29.20000,4.86060,29.16771
29.30000,4.87730,29.18113
29.40000,4.89390,29.18113
29.50000,4.91060,29.20797
29.60000,4.92730,29.20797
29.70000,4.94390,29.22140
29.80000,4.96060,29.22140
29.90000,4.97730,29.23482
30.00000,4.99390,29.24824
30.10000,5.01060,29.26167
30.20000,5.02730,29.27509
30.30000,5.04390,29.27509
30.40000,5.06060,29.28851
30.50000,5.07730,29.30193
30.60000,5.09390,29.31536
30.70000,5.11060,29.32878
30.80000,5.12730,29.34220
30.90000,5.14390,29.34220
31.00000,5.16060,29.36905
31.10000,5.17730,29.36905
31.20000,5.19390,29.38247
31.30000,5.21060,29.38247
31.40000,5.22730,29.40932
31.50000,5.24390,29.39589
31.60000,5.26060,29.42274
31.70000,5.27730,29.42274
31.80000,5.29390,29.44958
31.90000,5.31060,29.44958
32.00000,5.32720,29.46301
32.10000,5.34390,29.46301
32.20000,5.36060,29.48985
32.30000,5.37720,29.48985
32.40000,5.39390,29.51670
32.50000,5.41060,29.51670
32.60000,5.42720,29.53012
32.70000,5.44390,29.53012
32.80000,5.46060,29.54354
32.90000,5.47720,29.54354
33.00000,5.49390,29.55697
33.10000,5.51060,29.55697
33.20000,5.52720,29.57039
33.30000,5.54390,29.57039
33.40000,5.56060,29.58381
33.50000,5.57720,29.59723
33.60000,5.59390,29.59723
33.70000,5.61060,29.61066
33.80000,5.62720,29.63750
33.90000,5.64390,29.63750
34.00000,5.66060,29.65093
34.10000,5.67720,29.65093
34.20000,5.69390,29.66435
34.30000,5.71060,29.67777
34.40000,5.72720,29.67777
34.50000,5.74390,29.69119
34.60000,5.76060,29.70462
34.70000,5.77720,29.70462
34.80000,5.79390,29.71804
34.90000,5.81060,29.71804
35.00000,5.82720,29.71804
35.10000,5.84390,29.73146
35.20000,5.86050,29.74489
35.30000,5.87720,29.74489
35.40000,5.89390,29.75831
35.50000,5.91050,29.78515
35.60000,5.92720,29.77173
35.70000,5.94390,29.78515
35.80000,5.96050,29.79858
35.90000,5.97720,29.81200
36.00000,5.99390,29.82542
36.10000,6.01050,29.82542
36.20000,6.02720,29.82542
36.30000,6.04390,29.83884
36.40000,6.06050,29.85227
36.50000,6.07720,29.85227
36.60000,6.09390,29.86569
36.70000,6.11050,29.87911
36.80000,6.12720,29.87911
36.90000,6.14390,29.89254
37.00000,6.16050,29.89254
37.10000,6.17720,29.91938
37.20000,6.19390,29.93280
37.30000,6.21050,29.94623
37.40000,6.22720,29.95965
37.50000,6.24390,29.95965
37.60000,6.26050,29.97307
37.70000,6.27720,29.97307
37.80000,6.29390,29.98650
37.90000,6.31050,29.99992
38.00000,6.32720,30.01334
38.10000,6.34380,30.02676
38.20000,6.36050,30.02676
38.30000,6.37720,30.02676
38.40000,6.39380,30.04019
38.50000,6.41050,30.05361
38.60000,6.42720,30.05361
38.70000,6.44380,30.06703
38.80000,6.46050,30.08045
38.90000,6.47720,30.09388
39.00000,6.49380,30.09388
39.10000,6.51050,30.10730
39.20000,6.52720,30.12072
39.30000,6.54380,30.12072
39.40000,6.56050,30.13415
39.50000,6.57720,30.14757
39.60000,6.59380,30.14757
39.70000,6.61050,30.16099
39.80000,6.62720,30.16099
39.90000,6.64380,30.16099
40.00000,6.66050,30.17441
40.10000,6.67720,30.18784
40.20000,6.69380,30.20126
40.30000,6.71050,30.21468
40.40000,6.72720,30.22811
40.50000,6.74380,30.22811
40.60000,6.76050,30.24153
40.70000,6.77720,30.24153
40.80000,6.79380,30.26837
40.90000,6.81050,30.26837
41.00000,6.82720,30.28180
41.10000,6.84380,30.29522
41.20000,6.86050,30.30864
41.30000,6.87710,30.30864
41.40000,6.89380,30.30864
41.50000,6.91050,30.32207
41.60000,6.92710,30.32207
41.70000,6.94380,30.33549
41.80000,6.96050,30.34891
41.90000,6.97710,30.34891
42.00000,6.99380,30.36233
42.10000,7.01050,30.37576
42.20000,7.02710,30.38918
42.30000,7.04380,30.38918
42.40000,7.06050,30.40260
42.50000,7.07710,30.41602
42.60000,7.09380,30.41602
42.70000,7.11050,30.42945
42.80000,7.12710,30.42945
42.90000,7.14380,30.42945
43.00000,7.16050,30.44287
43.10000,7.17710,30.44287
43.20000,7.19380,30.44287
43.30000,7.21050,30.45629
43.40000,7.22710,30.46972
43.50000,7.24380,30.46972
43.60000,7.26050,30.48314
43.70000,7.27710,30.49656
43.80000,7.29380,30.49656
43.90000,7.31050,30.50998
44.00000,7.32710,30.52341
44.10000,7.34380,30.52341
44.20000,7.36050,30.53683
44.30000,7.37710,30.55025
44.40000,7.39380,30.56368
44.50000,7.41040,30.56368
44.60000,7.42710,30.57710
44.70000,7.44380,30.57710
44.80000,7.46040,30.57710
44.90000,7.47710,30.59052
45.00000,7.49380,30.59052
45.10000,7.51040,30.60394
45.20000,7.52710,30.61737
45.30000,7.54380,30.61737
45.40000,7.56040,30.61737
45.50000,7.57710,30.64421
45.60000,7.59380,30.64421
45.70000,7.61040,30.65763
45.80000,7.62710,30.65763
45.90000,7.64380,30.67106
46.00000,7.66040,30.68448
46.10000,7.67710,30.68448
46.20000,7.69380,30.69790
46.30000,7.71040,30.69790
46.40000,7.72710,30.71133
46.50000,7.74380,30.71133
46.60000,7.76040,30.72475
46.70000,7.77710,30.72475
46.80000,7.79380,30.73817
46.90000,7.81040,30.73817
47.00000,7.82710,30.75159
47.10000,7.84380,30.76502
47.20000,7.86040,30.77844
47.30000,7.87710,30.77844
47.40000,7.89380,30.77844
47.50000,7.91040,30.79186
47.60000,7.92710,30.80529
47.70000,7.94370,30.81871
47.80000,7.96040,30.81871
47.90000,7.97710,30.83213
48.00000,7.99370,30.83213
48.10000,8.01040,30.84555
48.20000,8.02710,30.84555
48.30000,8.04370,30.84555
48.40000,8.06040,30.85898
48.50000,8.07710,30.87240
48.60000,8.09370,30.87240
48.70000,8.11040,30.88582
48.80000,8.12710,30.88582
48.90000,8.14370,30.91267
49.00000,8.16040,30.91267
49.10000,8.17710,30.92609
49.20000,8.19370,30.93951
49.30000,8.21040,30.95294
49.40000,8.22710,30.95294
49.50000,8.24370,30.95294
49.60000,8.26040,30.96636
49.70000,8.27710,30.96636
49.80000,8.29370,30.97978
49.90000,8.31040,30.97978
50.00000,8.32710,30.97978
50.10000,8.34370,30.99320
50.20000,8.36040,30.99320
50.30000,8.37710,31.00663
50.40000,8.39370,31.00663
50.50000,8.41040,31.02005
50.60000,8.42700,31.03347
50.70000,8.44370,31.03347
50.80000,8.46040,31.04690
50.90000,8.47700,31.04690
51.00000,8.49370,31.06032
51.10000,8.51040,31.06032
51.20000,8.52700,31.07374
51.30000,8.54370,31.07374
51.40000,8.56040,31.08716
51.50000,8.57700,31.07374
51.60000,8.59370,31.10059
51.70000,8.61040,31.08716
51.80000,8.62700,31.11401
51.90000,8.64370,31.10059
52.00000,8.66040,31.11401
52.10000,8.67700,31.11401
52.20000,8.69370,31.14085
52.30000,8.71040,31.14085
52.40000,8.72700,31.14085
52.50000,8.74370,31.15428
52.60000,8.76040,31.16770
52.70000,8.77700,31.16770
52.80000,8.79370,31.18112
52.90000,8.81040,31.18112
53.00000,8.82700,31.19455
53.10000,8.84370,31.19455
53.20000,8.86040,31.20797
53.30000,8.87700,31.20797
53.40000,8.89370,31.20797
53.50000,8.91040,31.22139
53.60000,8.92700,31.22139
53.70000,8.94370,31.23481
53.80000,8.96030,31.23481
53.90000,8.97700,31.24824
54.00000,8.99370,31.24824
54.10000,9.01030,31.26166
54.20000,9.02700,31.27508
54.30000,9.04370,31.28851
54.40000,9.06030,31.28851
54.50000,9.07700,31.30193
54.60000,9.09370,31.30193
54.70000,9.11020,31.30193
54.80000,9.12690,31.30193
54.90000,9.14350,31.30193
55.00000,9.16020,31.31535
55.10000,9.17690,31.32877
55.20000,9.19350,31.32877
55.30000,9.21020,31.32877
55.40000,9.22690,31.32877
55.50000,9.24350,31.34220
55.60000,9.26020,31.35562
55.70000,9.27690,31.35562
55.80000,9.29350,31.36904
55.90000,9.31020,31.38246
56.00000,9.32690,31.38246
56.10000,9.34350,31.39589
56.20000,9.36020,31.39589
56.30000,9.37680,31.40931
56.40000,9.39350,31.40931
56.50000,9.41020,31.42273
56.60000,9.42680,31.42273
56.70000,9.44350,31.42273
56.80000,9.46020,31.44958
56.90000,9.47680,31.43616
57.00000,9.49350,31.44958
57.10000,9.51020,31.46300
57.20000,9.52680,31.46300
57.30000,9.54350,31.47642
57.40000,9.56020,31.47642
57.50000,9.57680,31.47642
57.60000,9.59350,31.50327
57.70000,9.61020,31.50327
57.80000,9.62680,31.51669
57.90000,9.64350,31.51669
58.00000,9.66020,31.53012
58.10000,9.67680,31.53012
58.20000,9.69350,31.53012
58.30000,9.71020,31.54354
58.40000,9.72680,31.54354
58.50000,9.74350,31.55696
58.60000,9.76020,31.55696
58.70000,9.77680,31.57038
58.80000,9.79350,31.58381
58.90000,9.81020,31.59723
59.00000,9.82680,31.59723
59.10000,9.84350,31.61065
59.20000,9.86020,31.62408
59.30000,9.87680,31.62408
59.40000,9.89350,31.63750
59.50000,9.91010,31.65092
59.60000,9.92680,31.65092
59.70000,9.94350,31.65092
59.80000,9.96010,31.66434
59.90000,9.97680,31.67777
60.00000,9.99350,31.67777
60.10000,10.01010,31.69119
60.20000,10.02680,31.70461
60.30000,10.04350,31.70461
60.40000,10.06010,31.70461
60.50000,10.07680,31.73146
60.60000,10.09350,31.73146
60.70000,10.11010,31.74488
60.80000,10.12680,31.74488
60.90000,10.14350,31.75830
61.00000,10.16010,31.75830
61.10000,10.17680,31.77173
61.20000,10.19350,31.77173
61.30000,10.21010,31.78515
61.40000,10.22680,31.78515
61.50000,10.24350,31.78515
61.60000,10.26010,31.79857
61.70000,10.27680,31.79857
61.80000,10.29350,31.79857
61.90000,10.31010,31.81199
62.00000,10.32680,31.81199
62.10000,10.34350,31.82542
62.20000,10.36010,31.83884
62.30000,10.37680,31.83884
62.40000,10.39350,31.85226
62.50000,10.41010,31.85226
62.60000,10.42680,31.86569
62.70000,10.44340,31.86569
62.80000,10.46010,31.86569
62.90000,10.47680,31.87911
63.00000,10.49340,31.87911
63.10000,10.51010,31.87911
63.20000,10.52680,31.89253
63.30000,10.54340,31.89253
63.40000,10.56010,31.90595
63.50000,10.57680,31.90595
63.60000,10.59340,31.90595
63.70000,10.61010,31.90595
63.80000,10.62680,31.91938
63.90000,10.64340,31.91938
64.00000,10.66010,31.91938
64.10001,10.67680,31.94622
64.20000,10.69340,31.93280
64.30000,10.71010,31.94622
64.40000,10.72680,31.94622
64.50000,10.74340,31.95964
64.60001,10.76010,31.95964
64.70000,10.77680,31.97307
64.80000,10.79340,31.97307
64.90000,10.81010,31.97307
65.00000,10.82680,31.97307
65.10001,10.84340,31.98649
65.20000,10.86010,31.98649
65.30000,10.87680,31.99991
65.40000,10.89340,31.99991
65.50000,10.91010,32.01334
65.60001,10.92680,31.99991
65.70001,10.94340,32.01334
65.80000,10.96010,32.01334
65.90000,10.97670,32.02676
66.00000,10.99340,32.02676
66.10001,11.01010,32.02676
66.20001,11.02670,32.02676
66.30000,11.04340,32.01334
66.40000,11.06010,32.02676
66.50000,11.07670,32.02676
66.60001,11.09340,32.04018
66.70001,11.11010,32.04018
66.80000,11.12670,32.05360
66.90000,11.14340,32.05360
67.00000,11.16010,32.05360
67.10001,11.17670,32.06703
67.20001,11.19340,32.06703
67.30000,11.21010,32.08045
67.40000,11.22670,32.08045
67.50000,11.24340,32.09387
67.60001,11.26010,32.10730
67.70001,11.27670,32.10730
67.80000,11.29340,32.12072
67.90000,11.31010,32.12072
68.00000,11.32670,32.12072
68.10001,11.34340,32.13414
68.20001,11.36010,32.13414
68.30000,11.37670,32.13414
68.40000,11.39340,32.14756
68.50000,11.41010,32.14756
68.60001,11.42670,32.14756
68.70001,11.44340,32.16099
68.80000,11.46000,32.17441
68.90000,11.47670,32.17441
69.00000,11.49340,32.18783
69.10001,11.51000,32.20125
69.20001,11.52670,32.18783
69.30000,11.54340,32.20125
69.40000,11.56000,32.21468
69.50000,11.57670,32.21468
69.60001,11.59340,32.21468
69.70001,11.61000,32.21468
69.80000,11.62670,32.21468
69.90000,11.64340,32.21468
70.00000,11.66000,32.22810
70.10001,11.67670,32.24152
70.20001,11.69340,32.24152
70.30000,11.71000,32.25495
70.40000,11.72670,32.25495
70.50000,11.74340,32.26837
70.60001,11.76000,32.26837
70.70001,11.77670,32.28179
70.80000,11.79340,32.29521
70.90000,11.81000,32.29521
71.00000,11.82670,32.29521
71.10001,11.84340,32.30864
71.20001,11.86000,32.32206
71.30000,11.87670,32.32206
71.40000,11.89340,32.33548
71.50000,11.91000,32.33548
71.60001,11.92670,32.33548
71.70001,11.94340,32.33548
71.80000,11.96000,32.33548
71.90000,11.97670,32.34891
72.00000,11.99330,32.34891
72.10001,12.01000,32.34891
72.20001,12.02670,32.37575
72.30000,12.04330,32.37575
72.40000,12.06000,32.38917
72.50000,12.07670,32.38917
72.60001,12.09330,32.38917
72.70001,12.11000,32.38917
72.80000,12.12670,32.40260
72.90000,12.14330,32.40260
73.00000,12.16000,32.41602
73.10001,12.17670,32.41602
73.20001,12.19330,32.41602
73.30000,12.21000,32.41602
73.40000,12.22670,32.42944
73.50000,12.24330,32.44286
73.60001,12.26000,32.44286
73.70001,12.27670,32.44286
73.80000,12.29330,32.45629
73.90000,12.31000,32.46971
74.00000,12.32670,32.46971
74.10001,12.34330,32.48313
74.20001,12.36000,32.46971
74.30000,12.37670,32.48313
74.40000,12.39330,32.48313
74.50000,12.41000,32.48313
74.60001,12.42670,32.49656
74.70001,12.44330,32.49656
74.80000,12.46000,32.49656
74.90000,12.47670,32.49656
75.00000,12.49330,32.49656
75.10001,12.51000,32.49656
75.20001,12.52660,32.50998
75.30000,12.54330,32.49656
75.40000,12.56000,32.49656
75.50000,12.57660,32.50998
75.60001,12.59330,32.50998
75.70001,12.61000,32.50998
75.80000,12.62660,32.50998
75.90000,12.64330,32.52340
76.00000,12.66000,32.52340
76.10001,12.67660,32.53682
76.20001,12.69330,32.53682
76.30000,12.71000,32.53682
76.40000,12.72660,32.53682
76.50000,12.74330,32.53682
76.60001,12.76000,32.53682
76.70001,12.77660,32.53682
76.80000,12.79330,32.53682
76.90000,12.81000,32.55025
77.00000,12.82660,32.55025
77.10001,12.84330,32.55025
77.20001,12.86000,32.56367
77.30000,12.87660,32.56367
77.40000,12.89330,32.57709
77.50000,12.91000,32.56367
77.60001,12.92660,32.57709
77.70001,12.94330,32.57709
77.80000,12.96000,32.57709
77.90000,12.97660,32.57709
78.00000,12.99330,32.57709
78.10001,13.01000,32.59052
78.20001,13.02660,32.59052
78.30000,13.04330,32.59052
78.40000,13.05990,32.59052
78.50000,13.07660,32.59052
78.60001,13.09330,32.60394
78.70001,13.10990,32.60394
78.80000,13.12660,32.60394
78.90000,13.14330,32.61736
79.00000,13.15990,32.61736
79.10001,13.17660,32.61736
79.20001,13.19330,32.61736
79.30000,13.20990,32.63078
79.40000,13.22660,32.63078
79.50000,13.24330,32.63078
79.60001,13.25990,32.63078
79.70001,13.27660,32.64421
79.80000,13.29330,32.64421
79.90000,13.30990,32.64421
80.00000,13.32660,32.64421
80.10001,13.34330,32.65763
80.20001,13.35990,32.65763
80.30000,13.37660,32.65763
80.40000,13.39330,32.65763
80.50001,13.40990,32.67105
80.60001,13.42660,32.67105
80.70001,13.44330,32.68448
80.80000,13.45990,32.68448
80.90000,13.47660,32.69790
81.00001,13.49330,32.69790
81.10001,13.50990,32.69790
81.20001,13.52660,32.69790
81.30000,13.54320,32.71132
81.40000,13.55990,32.71132
81.50001,13.57660,32.71132
81.60001,13.59320,32.71132
81.70001,13.60990,32.72474
81.80000,13.62660,32.72474
81.90000,13.64320,32.72474
82.00001,13.65990,32.72474
82.10001,13.67660,32.73817
82.20001,13.69320,32.75159
82.30000,13.70990,32.73817
82.40000,13.72660,32.75159
82.50001,13.74320,32.75159
82.60001,13.75990,32.75159
82.70001,13.77660,32.76501
82.80000,13.79320,32.76501
82.90000,13.80990,32.76501
83.00001,13.82660,32.76501
83.10001,13.84320,32.77843
83.20001,13.85990,32.76501
83.30000,13.87660,32.76501
83.40000,13.89320,32.76501
83.50001,13.90990,32.77843
83.60001,13.92660,32.76501
83.70001,13.94320,32.77843
83.80000,13.95990,32.77843
83.90000,13.97660,32.79186
84.00001,13.99320,32.77843
84.10001,14.00990,32.79186
84.20001,14.02660,32.77843
84.30000,14.04320,32.79186
84.40000,14.05990,32.79186
84.50001,14.07650,32.79186
84.60001,14.09320,32.79186
84.70001,14.10990,32.80528
84.80000,14.12650,32.80528
84.90000,14.14320,32.80528
85.00001,14.15990,32.80528
85.10001,14.17650,32.81870
85.20001,14.19320,32.81870
85.30000,14.20990,32.81870
85.40000,14.22650,32.81870
85.50001,14.24320,32.83213
85.60001,14.25990,32.83213
85.70001,14.27650,32.83213
85.80000,14.29320,32.84555
85.90000,14.30990,32.84555
86.00001,14.32650,32.84555
86.10001,14.34320,32.84555
86.20001,14.35990,32.85897
86.30000,14.37650,32.85897
86.40000,14.39320,32.85897
86.50001,14.40990,32.85897
86.60001,14.42650,32.85897
86.70001,14.44320,32.87239
86.80000,14.45990,32.87239
86.90000,14.47650,32.88582
87.00001,14.49320,32.88582
87.10001,14.50990,32.88582
87.20001,14.52650,32.89924
87.30000,14.54320,32.89924
87.40000,14.55990,32.91266
87.50001,14.57650,32.92609
87.60001,14.59320,32.92609
87.70001,14.60980,32.92609
87.80000,14.62650,32.93951
87.90000,14.64320,32.93951
88.00001,14.65980,32.95293
88.10001,14.67650,32.95293
88.20001,14.69320,32.95293
88.30000,14.70980,32.95293
88.40000,14.72650,32.95293
88.50001,14.74320,32.96635
88.60001,14.75980,32.96635
88.70001,14.77650,32.97978
88.80000,14.79320,32.99320
88.90000,14.80980,32.97978
89.00001,14.82650,32.99320
89.10001,14.84320,33.00662
89.20001,14.85980,33.02004
89.30000,14.87650,33.02004
89.40000,14.89320,33.02004
89.50001,14.90980,33.03347
89.60001,14.92650,33.03347
89.70001,14.94320,33.03347
89.80000,14.95980,33.04689
89.90000,14.97650,33.04689
90.00001,14.99320,33.04689
90.10001,15.00980,33.04689
90.20001,15.02650,33.06031
90.30000,15.04320,33.06031
90.40000,15.05980,33.07374
90.50001,15.07650,33.07374
90.60001,15.09320,33.07374
90.70001,15.10980,33.08716
90.80000,15.12650,33.08716
90.90000,15.14310,33.10058
91.00001,15.15980,33.11400
91.10001,15.17650,33.11400
91.20001,15.19310,33.11400
91.30000,15.20980,33.12743
91.40000,15.22650,33.12743
91.50001,15.24310,33.12743
91.60001,15.25980,33.12743
91.70001,15.27650,33.12743
91.80000,15.29310,33.14085
91.90000,15.30980,33.14085
92.00001,15.32650,33.15427
92.10001,15.34310,33.15427
92.20001,15.35980,33.15427
92.30000,15.37650,33.16770
92.40000,15.39310,33.16770
92.50001,15.40980,33.18112
92.60001,15.42650,33.18112
92.70001,15.44310,33.19454
92.80000,15.45980,33.19454
92.90000,15.47650,33.19454
93.00001,15.49310,33.19454
93.10001,15.50980,33.20796
93.20001,15.52650,33.22139
93.30000,15.54310,33.20796
93.40000,15.55980,33.22139
93.50001,15.57650,33.22139
93.60001,15.59310,33.22139
93.70001,15.60980,33.24823
93.80000,15.62640,33.24823
93.90000,15.64310,33.24823
94.00001,15.65980,33.26165
94.10001,15.67640,33.26165
94.20001,15.69310,33.26165
94.30000,15.70980,33.27508
94.40000,15.72640,33.27508
94.50001,15.74310,33.28850
94.60001,15.75980,33.27508
94.70001,15.77640,33.28850
94.80000,15.79310,33.28850
94.90000,15.80980,33.28850
95.00001,15.82640,33.28850
95.10001,15.84310,33.30192
95.20001,15.85980,33.30192
95.30000,15.87640,33.31535
95.40000,15.89310,33.31535
95.50001,15.90980,33.31535
95.60001,15.92640,33.32877
95.70001,15.94310,33.32877
95.80000,15.95980,33.32877
95.90000,15.97640,33.32877
96.00001,15.99310,33.34219
96.10001,16.00980,33.34219
96.20001,16.02640,33.34219
96.30000,16.04310,33.34219
96.40000,16.05980,33.35561
96.50001,16.07640,33.35561
96.60001,16.09310,33.35561
96.70001,16.10980,33.35561
96.80000,16.12640,33.36904
96.90000,16.14310,33.36904
97.00001,16.15970,33.38246
97.10001,16.17640,33.38246
97.20001,16.19310,33.39588
97.30000,16.20970,33.39588
97.40000,16.22640,33.39588
97.50001,16.24310,33.40931
97.60001,16.25970,33.40931
97.70001,16.27640,33.40931
97.80000,16.29310,33.40931
97.90000,16.30970,33.42273
98.00001,16.32640,33.42273
98.10001,16.34310,33.42273
98.20001,16.35970,33.42273
98.30000,16.37640,33.42273
98.40000,16.39310,33.43615
98.50001,16.40970,33.43615
98.60001,16.42640,33.42273
98.70001,16.44310,33.43615
98.80000,16.45970,33.43615
98.90000,16.47640,33.44957
99.00001,16.49310,33.44957
99.10001,16.50970,33.44957
99.20001,16.52640,33.46300
99.30000,16.54310,33.46300
99.40000,16.55970,33.46300
99.50001,16.57640,33.46300
99.60001,16.59310,33.46300
99.70001,16.60970,33.46300
99.80000,16.62640,33.46300
99.90000,16.64310,33.46300
100.00001,16.65970,33.46300
100.10001,16.67640,33.46300
100.20001,16.69300,33.47642
100.30000,16.70970,33.46300
100.40000,16.72640,33.47642
100.50001,16.74300,33.47642
100.60001,16.75970,33.46300
100.70001,16.77640,33.46300
100.80000,16.79300,33.47642
100.90000,16.80970,33.47642
101.00001,16.82640,33.47642
101.10001,16.84300,33.47642
101.20001,16.85970,33.47642
101.30000,16.87640,33.47642
101.40000,16.89300,33.47642
101.50001,16.90970,33.47642
101.60001,16.92640,33.47642
101.70001,16.94300,33.47642
101.80000,16.95970,33.48984
101.90000,16.97640,33.48984
102.00001,16.99300,33.48984
102.10001,17.00970,33.47642
102.20001,17.02640,33.48984
102.30000,17.04300,33.48984
102.40000,17.05970,33.48984
102.50001,17.07640,33.50326
102.60001,17.09300,33.50326
102.70001,17.10970,33.48984
102.80000,17.12640,33.48984
102.90000,17.14300,33.48984
103.00001,17.15970,33.48984
103.10001,17.17640,33.48984
103.20001,17.19300,33.48984
103.30000,17.20970,33.48984
103.40000,17.22630,33.47642
103.50001,17.24300,33.47642
103.60001,17.25970,33.47642
103.70001,17.27630,33.47642
103.80000,17.29300,33.46300
103.90000,17.30970,33.44957
104.00001,17.32630,33.43615
104.10001,17.34300,33.40931
104.20001,17.35970,33.27508
104.25001,17.36800,2.88589